2019/09/28
仕入先コード,仕入先名,仕入れ金額,支払い方法,サイト,支払日,〆日,処理月,処理年,8%商品分,10%商品分
152,有限会社　労務管理　青山事務所,0, ,25,25,0,10月,2019,0,0
1,赤穂あらなみ,0, ,0,0,0,10月,2019,0,0
126,有限会社　アジアフーズ,0, ,20,20,0,10月,2019,0,0
3,株式会社　石井商店,0, ,0,0,0,10月,2019,0,0
4,石光商事　株式会社　東京支店,0,振り込み,20,20,0,10月,2019,0,0
179,株式会社　伊藤園,0,振り込み,25,25,0,10月,2019,0,0
161,伊藤忠食品　株式会社,0, ,60,0,0,10月,2019,0,0
16,×伊藤忠　株式会社×,0, ,70,10,0,10月,2019,0,0
40,ダイナーフーズ　株式会社　　,0, ,0,0,0,10月,2019,0,0
175,イベリア貿易　株式会社,0,振り込み,30,0,0,10月,2019,0,0
107,梅辰　株式会社,0,振り込み,25,25,0,10月,2019,0,0
180,エコラボ合同会社,0,振り込み,25,25,0,10月,2019,0,0
189,×株式会社　NSV,0, ,0,0,0,10月,2019,0,0
11,株式会社　太堀,0, ,60,0,0,10月,2019,0,0
159,株式会社　オカベ,0, ,20,20,0,10月,2019,0,0
158,×有限会社　鹿取商会×,0, ,20,20,0,10月,2019,0,0
181,神奈川菓子流通　株式会社,0,振り込み,20,20,0,10月,2019,0,0
13,金鶴食品製菓　株式会社,0,振り込み,20,20,0,10月,2019,0,0
127,金田屋　株式会社,0,振り込み,20,20,0,10月,2019,0,0
183,株式会社　かね徳,0,振り込み,20,20,0,10月,2019,0,0
198,有限会社　川島食品,0,現金,30,0,0,10月,2019,0,0
19,株式会社　ギャバン,0, ,20,20,0,10月,2019,0,0
20,株式会社協同インターナショナル,0,振り込み,20,20,0,10月,2019,0,0
21,株式会社　金城軒,0,手形,65,25,20,10月,2019,0,0
177,株式会社　金原海苔店,0,振り込み,25,25,0,10月,2019,0,0
128,有限会社　グルマン,0, ,0,0,0,10月,2019,0,0
184,株式会社　慶運食品販売,0,振り込み,25,25,0,10月,2019,0,0
173,×株式会社　慶運,0, ,25,25,0,10月,2019,0,0
170,ケーオー産業　株式会社,0,振り込み,25,25,0,10月,2019,0,0
157,コーヨープランニング株式会社,0,振り込み,30,0,0,10月,2019,0,0
195,×コカ.コーライーストジャパン株式会社,0, ,25,25,0,10月,2019,0,0
197,コカ・コーラボトラーズジャパン株式会社,0,振り込み,25,25,0,10月,2019,0,0
131,有限会社　コスモス,0, ,20,20,0,10月,2019,0,0
130,有限会社　小林商店,0,振り込み,20,20,0,10月,2019,0,0
129,×コミヤ冷食　株式会社　×,0, ,20,20,0,10月,2019,0,0
132,×サフランソース食品　株式会社×,0, ,30,20,20,10月,2019,0,0
162,×サフランソース食品　株式会社,0, ,20,20,0,10月,2019,0,0
26,×三栄食品×,0, ,20,20,0,10月,2019,0,0
102,×株式会社　三祐,0, ,0,0,0,10月,2019,0,0
29,サンユウ　株式会社,0, ,75,0,0,10月,2019,0,0
160,株式会社　三和フーズ,0, ,25,25,0,10月,2019,0,0
31,株式会社　ジーエスフード　東京支店,0,手形,70,0,20,10月,2019,0,0
32,株式会社　ジェーシー・コムサ,0, ,60,0,0,10月,2019,0,0
116,株式会社　ジャパンフーズ,0,手形,60,0,0,10月,2019,0,0
133,昭和電工ｶﾞｽﾌﾟﾛﾀﾞｸﾂ　株式会社,0,振り込み,20,20,0,10月,2019,0,0
37,杉治　株式会社　本社,0, ,60,20,20,10月,2019,0,0
182,×SMARTコンサルティング事務所,0, ,0,0,0,10月,2019,0,0
114,株式会社　タイオリエント商事,0,振り込み,20,20,0,10月,2019,0,0
109,株式会社　大虹食品流通,0,振り込み,25,25,0,10月,2019,0,0
171,ダイナーフーズ　株式会社,0,振り込み,25,25,0,10月,2019,0,0
42,大洋エーアンドエフ株式会社,0, ,55,25,0,10月,2019,0,0
172,株式会社　高木海藻店,0,振り込み,25,25,0,10月,2019,0,0
164,株式会社　拓殖農産,0,振り込み,20,20,0,10月,2019,0,0
136,有限会社　竹下商店,0,振り込み,20,20,0,10月,2019,0,0
44,×株式会社　但馬屋,0, ,0,0,0,10月,2019,0,0
46,田中紙業株式会社,0, ,30,0,0,10月,2019,0,0
134, ,0, ,0,0,0,10月,2019,0,0
165,東亜商事　株式会社,1123,手形,60,20,20,10月,2019,540,583
167,東亜商事　株式会社　米,3564,振り込み,30,20,20,10月,2019,3564,0
192,東亜商事　株式会社　卵,0,手形,45,5,20,10月,2019,0,0
168,東亜商事　株式会社　生麺,0,振り込み,30,20,20,10月,2019,0,0
185,東亜商事　株式会社　野菜,0,振り込み,30,0,0,10月,2019,0,0
166,東亜商事　株式会社　冷食,0,手形,45,5,20,10月,2019,0,0
174,東亜箸販売　株式会社,22709.5,振り込み,25,25,0,10月,2019,1148,21562
154,税理士法人　東京会計事務所,0,振り込み,20,20,0,10月,2019,0,0
51,×東京スナック食品　株式会社  営業業務×,0, ,0,0,0,10月,2019,0,0
98,株式会社　東京鷹松屋,0,振り込み,25,25,0,10月,2019,0,0
144,×東亜商事　株式会社　米,0, ,30,20,20,10月,2019,0,0
48,×東亜商事　株式会社,0, ,80,10,20,10月,2019,0,0
149,×東亜商事　株式会社　生麺,0, ,30,20,20,10月,2019,0,0
143,×東亜商事　株式会社　冷食,0, ,60,20,20,10月,2019,0,0
55,株式会社　トカノ,0,振り込み,20,20,0,10月,2019,0,0
151,×巴商事　株式会社×,0, ,20,20,0,10月,2019,0,0
188,株式会社　南京軒,0,現金,30,0,0,10月,2019,0,0
186,株式会社　南風堂,0,現金,30,0,0,10月,2019,0,0
57,株式会社　ﾆｲﾀｶ　 東京支店,0, ,0,0,0,10月,2019,0,0
59,×日糧物産株式会社×,0, ,20,20,0,10月,2019,0,0
148,×日本酒類販売　株式会社  神奈川支店,0, ,60,0,0,10月,2019,0,0
60,×日宏貿易  株式会社×,0, ,20,20,0,10月,2019,0,0
194,日本酒類販売　株式会社  神奈川支店,0,振り込み,60,0,0,10月,2019,0,0
141,日昭産業　株式会社,0, ,20,20,0,10月,2019,0,0
61,株式会社　日東ストロー商会,0,手形,60,0,0,10月,2019,0,0
62,日東ベスト　株式会社,0, ,0,0,0,10月,2019,0,0
63,日本酒類販売　株式会社  城南支店,0, ,0,0,0,10月,2019,0,0
191,日本食研株式会社　横浜支店,0,振り込み,30,0,0,10月,2019,0,0
176,ハガフーズ　株式会社,0,振り込み,20,20,0,10月,2019,0,0
178,株式会社　白松,0,振り込み,25,25,0,10月,2019,0,0
187,有限会社　羽山商店,0,現金,30,0,0,10月,2019,0,0
147,株式会社　万城食品,0,振り込み,20,20,0,10月,2019,0,0
193,株式会社　ビーエムコーポレーション,0,現金,30,0,0,10月,2019,0,0
169,有限会社　風和商事,0,振り込み,20,20,0,10月,2019,0,0
153,株式会社　フォーサイト,0, ,30,25,25,10月,2019,
67,株式会社　冨士ハム,0,振り込み,20,20,0,10月,2019,0,0
103,株式会社　藤本商会本店,0,振り込み,20,20,0,10月,2019,0,0
135,有限会社　ポンベックスジャパン,0, ,20,20,0,10月,2019,0,0
190,×マスコットフーズ　株式会社,0,手形,60,0,0,10月,2019,0,0
78,丸金食品　株式会社  本社,0, ,0,0,0,10月,2019,0,0
118,株式会社　マリソル,0,現金,30,0,0,10月,2019,0,0
137,株式会社　マル井,0,振り込み,30,20,20,10月,2019,0,0
163,丸金食品　株式会社  本社,0,振り込み,20,20,0,10月,2019,0,0
196,株式会社　マルセイフーズ,0,振り込み,25,25,0,10月,2019,0,0
138,×有限会社　宮本商事×,0, ,20,20,0,10月,2019,0,0
83,ムラカワ　株式会社,0, ,60,0,0,10月,2019,0,0
139,明治ケンコーハム　株式会社,0,振り込み,20,20,0,10月,2019,0,0
199,元熊商店,0,現金,30,0,0,10月,2019,0,0
86,株式会社　ヤグチ,0,手形,75,15,0,10月,2019,0,0
146,株式会社　ヤグチ　ノンフーズ,0,手形,75,15,0,10月,2019,0,0
145,株式会社　ヤグチ　冷食,0,手形,60,0,0,10月,2019,0,0
88,ヤスマ　株式会社,0,手形,60,0,0,10月,2019,0,0
89,株式会社　ヤマ食,0,振り込み,20,20,0,10月,2019,0,0
155,株式会社　ユニホー,0,振り込み,30,20,20,10月,2019,0,0
156,株式会社　ユニホー,0,振り込み,30,0,0,10月,2019,0,0
140,横井醸造工業　株式会社,0,振り込み,30,20,20,10月,2019,0,0
142,横浜食糧　株式会社,0,振り込み,20,20,0,10月,2019,0,0
94,株式会社横浜鷹松屋,0, ,0,0,0,10月,2019,0,0
150,リコーソリューションズ東京株式会社,0, ,20,20,0,10月,2019,0,0
96,ワタル　株式会社,0,手形,85,25,0,10月,2019,0,0
,合計,27396.5,,,,　
